…
Define the CSS expression to identify relevant links. This expression
was determined using the developer tools of the browser:

    links_css <- ".data a"

Execute the above described function and make sure that every resulting
path is unique (Fischetti (2023)):

    df_gpx_paths <- verify(gpx_paths(base_url, editions, links_css), is_uniq(gpx_path))

    ## # A tibble: 66 × 2
    ##    gpx_path                                                              edition
    ##    <chr>                                                                 <chr>  
    ##  1 https://cdn.cyclingstage.com/images/tour-de-france/2022/stage-1-parc… 2022   
    ##  2 https://cdn.cyclingstage.com/images/tour-de-france/2022/stage-2-parc… 2022   
    ##  3 https://cdn.cyclingstage.com/images/tour-de-france/2022/stage-3-parc… 2022   
    ##  4 https://cdn.cyclingstage.com/images/tour-de-france/2022/stage-4-parc… 2022   
    ##  5 https://cdn.cyclingstage.com/images/tour-de-france/2022/stage-5-parc… 2022   
    ##  6 https://cdn.cyclingstage.com/images/tour-de-france/2022/stage-6-parc… 2022   
    ##  7 https://cdn.cyclingstage.com/images/tour-de-france/2022/stage-7-parc… 2022   
    ##  8 https://cdn.cyclingstage.com/images/tour-de-france/2022/stage-8-parc… 2022   
    ##  9 https://cdn.cyclingstage.com/images/tour-de-france/2022/stage-9-gpxr… 2022   
    ## 10 https://cdn.cyclingstage.com/images/tour-de-france/2022/stage-10-par… 2022   
    ## # ℹ 56 more rows
…
Before we call the function define the CSS that will select the right
elements. Again this was determined using the SelectorGadget tool:

    track_point_css <- "trkpt"

Insert the base url, the links to the gpx files and the mentioned CSS
selector into the function and call it:

    df_track_points <- track_points(base_url, df_gpx_paths, track_point_css)

    ## # A tibble: 737,011 × 5
    ##    gpx_path                                        edition   lat   lon elevation
    ##    <chr>                                           <chr>   <dbl> <dbl>     <dbl>
    ##  1 https://cdn.cyclingstage.com/images/tour-de-fr… 2022     55.7  12.6         7
    ##  2 https://cdn.cyclingstage.com/images/tour-de-fr… 2022     55.7  12.6         7
    ##  3 https://cdn.cyclingstage.com/images/tour-de-fr… 2022     55.7  12.6         7
    ##  4 https://cdn.cyclingstage.com/images/tour-de-fr… 2022     55.7  12.6         7
    ##  5 https://cdn.cyclingstage.com/images/tour-de-fr… 2022     55.7  12.6         7
    ##  6 https://cdn.cyclingstage.com/images/tour-de-fr… 2022     55.7  12.6         7
    ##  7 https://cdn.cyclingstage.com/images/tour-de-fr… 2022     55.7  12.6         7
    ##  8 https://cdn.cyclingstage.com/images/tour-de-fr… 2022     55.7  12.6         7
    ##  9 https://cdn.cyclingstage.com/images/tour-de-fr… 2022     55.7  12.6         7
    ## 10 https://cdn.cyclingstage.com/images/tour-de-fr… 2022     55.7  12.6         7
    ## # ℹ 737,001 more rows
…
      st_cast(sf_multipoints, "LINESTRING")
    }

If we apply the function, we get an data frame with one row per stage
and a geometry list column, that represents the spatial data of that
stage:

    sf_tdf_stages <- stages_sf(df_track_points)

    ## Simple feature collection with 66 features and 3 fields
    ## Geometry type: LINESTRING
    ## Dimension:     XY
    ## Bounding box:  xmin: -3.01601 ymin: 42.72618 xmax: 12.6 ymax: 55.85376
    ## Geodetic CRS:  WGS 84
    ## # A tibble: 66 × 4
    ##    gpx_path                       edition elev_profile                  geometry
    ##    <chr>                          <chr>   <list>                <LINESTRING [°]>
    ##  1 https://cdn.cyclingstage.com/… 2022    <tibble>     (12.56353 55.6796, 12.56…
    ##  2 https://cdn.cyclingstage.com/… 2022    <tibble>     (6.67252 46.21029, 6.672…
    ##  3 https://cdn.cyclingstage.com/… 2022    <tibble>     (6.34834 45.63295, 6.348…
    ##  4 https://cdn.cyclingstage.com/… 2022    <tibble>     (6.62028 44.91842, 6.620…
    ##  5 https://cdn.cyclingstage.com/… 2022    <tibble>     (6.00916 45.10007, 6.008…
    ##  6 https://cdn.cyclingstage.com/… 2022    <tibble>     (4.30587 45.43429, 4.305…
    ##  7 https://cdn.cyclingstage.com/… 2022    <tibble>     (2.55865 44.32343, 2.558…
    ##  8 https://cdn.cyclingstage.com/… 2022    <tibble>     (2.3313 43.18762, 2.3312…
    ##  9 https://cdn.cyclingstage.com/… 2022    <tibble>     (0.69061 43.09445, 0.690…
    ## 10 https://cdn.cyclingstage.com/… 2022    <tibble>     (-0.04125 43.07966, -0.0…
    ## # ℹ 56 more rows
…
